64050213 วรกานต์ แสนสุขสกุลชล
65050452 นฤภร สุดวรรค
63050034 ธนรัฐ ศรีหาผล
65050749 ระพีพัฒน์ เสาเปรีย
65050566 ปุณยวีร์ กิตติกุลยุทธ์
65050565 ปุณยวัจน์ แสงรัตนายนต์
65050934 สุนิสา ยอดสมุทร
65050305 ณัฐรินีย์ รัตนวรรณ
65050916 สุกันยาภรณ์  ฤดีชุติพร
63050033 ธนภัทร มุนีกุล
64050191 ภูมิรพี ศรีฟ้า
64050188 ภานุพงศ์ เบ้าแก้ว
64050218 วรายุทธ พรมพาดี
65051027 อินฑัช แก้วเกตุ
65050075 กิตติพิชญ์ มุกดาสนิท
64050152 ปิยะวัชร์ หมื่นศรี
65050870 ศิรสิทธิ์ เรืองศิลปวิไล
64050150 ปัณณวัชญ์ จรูญกีรติโรจน์
